%!PS-Adobe-2.0 EPSF-2.0
%%Title: /Users/broeckho/Downloads/Diagram2.dia
%%Creator: Dia v0.97.2
%%CreationDate: Thu Mar 24 16:47:29 2016
%%For: broeckho
%%Orientation: Portrait
%%Magnification: 1.0000
%%BoundingBox: 0 0 309 113
%%BeginSetup
%%EndSetup
%%EndComments
%%BeginProlog
[ /.notdef /.notdef /.notdef /.notdef /.notdef /.notdef /.notdef /.notdef /.notdef /.notdef
/.notdef /.notdef /.notdef /.notdef /.notdef /.notdef /.notdef /.notdef /.notdef /.notdef
/.notdef /.notdef /.notdef /.notdef /.notdef /.notdef /.notdef /.notdef /.notdef /.notdef
/.notdef /.notdef /space /exclam /quotedbl /numbersign /dollar /percent /ampersand /quoteright
/parenleft /parenright /asterisk /plus /comma /hyphen /period /slash /zero /one
/two /three /four /five /six /seven /eight /nine /colon /semicolon
/less /equal /greater /question /at /A /B /C /D /E
/F /G /H /I /J /K /L /M /N /O
/P /Q /R /S /T /U /V /W /X /Y
/Z /bracketleft /backslash /bracketright /asciicircum /underscore /quoteleft /a /b /c
/d /e /f /g /h /i /j /k /l /m
/n /o /p /q /r /s /t /u /v /w
/x /y /z /braceleft /bar /braceright /asciitilde /.notdef /.notdef /.notdef
/.notdef /.notdef /.notdef /.notdef /.notdef /.notdef /.notdef /.notdef /.notdef /.notdef
/.notdef /.notdef /.notdef /.notdef /.notdef /.notdef /.notdef /.notdef /.notdef /.notdef
/.notdef /.notdef /.notdef /.notdef /.notdef /.notdef /.notdef /.notdef /.notdef /.notdef
/space /exclamdown /cent /sterling /currency /yen /brokenbar /section /dieresis /copyright
/ordfeminine /guillemotleft /logicalnot /hyphen /registered /macron /degree /plusminus /twosuperior /threesuperior
/acute /mu /paragraph /periodcentered /cedilla /onesuperior /ordmasculine /guillemotright /onequarter /onehalf
/threequarters /questiondown /Agrave /Aacute /Acircumflex /Atilde /Adieresis /Aring /AE /Ccedilla
/Egrave /Eacute /Ecircumflex /Edieresis /Igrave /Iacute /Icircumflex /Idieresis /Eth /Ntilde
/Ograve /Oacute /Ocircumflex /Otilde /Odieresis /multiply /Oslash /Ugrave /Uacute /Ucircumflex
/Udieresis /Yacute /Thorn /germandbls /agrave /aacute /acircumflex /atilde /adieresis /aring
/ae /ccedilla /egrave /eacute /ecircumflex /edieresis /igrave /iacute /icircumflex /idieresis
/eth /ntilde /ograve /oacute /ocircumflex /otilde /odieresis /divide /oslash /ugrave
/uacute /ucircumflex /udieresis /yacute /thorn /ydieresis] /isolatin1encoding exch def
/cp {closepath} bind def
/c {curveto} bind def
/f {fill} bind def
/a {arc} bind def
/ef {eofill} bind def
/ex {exch} bind def
/gr {grestore} bind def
/gs {gsave} bind def
/sa {save} bind def
/rs {restore} bind def
/l {lineto} bind def
/m {moveto} bind def
/rm {rmoveto} bind def
/n {newpath} bind def
/s {stroke} bind def
/sh {show} bind def
/slc {setlinecap} bind def
/slj {setlinejoin} bind def
/slw {setlinewidth} bind def
/srgb {setrgbcolor} bind def
/rot {rotate} bind def
/sc {scale} bind def
/sd {setdash} bind def
/ff {findfont} bind def
/sf {setfont} bind def
/scf {scalefont} bind def
/sw {stringwidth pop} bind def
/tr {translate} bind def

/ellipsedict 8 dict def
ellipsedict /mtrx matrix put
/ellipse
{ ellipsedict begin
   /endangle exch def
   /startangle exch def
   /yrad exch def
   /xrad exch def
   /y exch def
   /x exch def   /savematrix mtrx currentmatrix def
   x y tr xrad yrad sc
   0 0 1 startangle endangle arc
   savematrix setmatrix
   end
} def

/mergeprocs {
dup length
3 -1 roll
dup
length
dup
5 1 roll
3 -1 roll
add
array cvx
dup
3 -1 roll
0 exch
putinterval
dup
4 2 roll
putinterval
} bind def
/dpi_x 300 def
/dpi_y 300 def
/conicto {
    /to_y exch def
    /to_x exch def
    /conic_cntrl_y exch def
    /conic_cntrl_x exch def
    currentpoint
    /p0_y exch def
    /p0_x exch def
    /p1_x p0_x conic_cntrl_x p0_x sub 2 3 div mul add def
    /p1_y p0_y conic_cntrl_y p0_y sub 2 3 div mul add def
    /p2_x p1_x to_x p0_x sub 1 3 div mul add def
    /p2_y p1_y to_y p0_y sub 1 3 div mul add def
    p1_x p1_y p2_x p2_y to_x to_y curveto
} bind def
/start_ol { gsave 1.1 dpi_x div dup scale} bind def
/end_ol { closepath fill grestore } bind def
28.346000 -28.346000 scale
-3.950000 1408.775000 translate
%%EndProlog


0.164706 0.576471 0.164706 srgb
gsave 3.950000 -1409.550000 translate 0.035278 -0.035278 scale
start_ol
320 0 moveto
1536 5376 lineto
4416 5376 lineto
4316 5003 4316 4655 conicto
4316 3821 4898 3286 conicto
5481 2752 6293 2752 conicto
7270 2752 7923 3392 conicto
8576 4033 8576 4985 conicto
8576 5619 8209 6323 conicto
7842 7027 6147 8512 conicto
4452 9998 3954 10987 conicto
3456 11976 3456 12916 conicto
3456 14756 4716 16146 conicto
5977 17536 8286 17536 conicto
10457 17536 11693 16170 conicto
11968 17408 lineto
14720 17408 lineto
13632 12800 lineto
10816 12800 lineto
10854 12979 10854 13158 conicto
10854 13837 10327 14278 conicto
9801 14720 8967 14720 conicto
8230 14720 7795 14366 conicto
7360 14012 7360 13468 conicto
7360 13026 7642 12514 conicto
7925 12002 9611 10524 conicto
11298 9046 11889 7800 conicto
12480 6554 12480 5327 conicto
12480 2860 10900 1270 conicto
9320 -320 6910 -320 conicto
4887 -320 3513 1300 conicto
3200 0 lineto
320 0 lineto
end_ol grestore 
gsave 5.675885 -1409.550000 translate 0.035278 -0.035278 scale
start_ol
7027 13632 moveto
6186 13632 5589 14237 conicto
4992 14842 4992 15686 conicto
4992 16543 5589 17135 conicto
6186 17728 7027 17728 conicto
7882 17728 8485 17129 conicto
9088 16531 9088 15686 conicto
9088 14842 8478 14237 conicto
7869 13632 7027 13632 conicto
2240 2560 moveto
3853 9536 lineto
2215 9536 lineto
2803 12096 lineto
8153 12096 lineto
5948 2560 lineto
7585 2560 lineto
6998 0 lineto
320 0 lineto
910 2560 lineto
2240 2560 lineto
end_ol grestore 
gsave 6.802332 -1409.550000 translate 0.035278 -0.035278 scale
start_ol
-192 0 moveto
390 2560 lineto
2112 2560 lineto
3725 9536 lineto
1536 9536 lineto
2125 12096 lineto
8029 12096 lineto
7652 10481 lineto
10554 12288 12343 12288 conicto
14732 12288 15470 10144 conicto
18867 12288 20780 12288 conicto
22164 12288 23113 11459 conicto
24063 10630 24063 9283 conicto
24063 8822 23951 8336 conicto
22600 2560 lineto
24512 2560 lineto
23924 0 lineto
18304 0 lineto
19992 7218 lineto
20092 7636 20092 7990 conicto
20092 9344 18852 9344 conicto
17599 9344 15408 7736 conicto
14217 2560 lineto
16128 2560 lineto
15539 0 lineto
9920 0 lineto
11582 7218 lineto
11682 7686 11682 8053 conicto
11682 9344 10455 9344 conicto
8990 9344 7037 7762 conicto
5820 2560 lineto
7680 2560 lineto
7096 0 lineto
-192 0 lineto
end_ol grestore 
gsave 10.081768 -1409.550000 translate 0.035278 -0.035278 scale
start_ol
256 0 moveto
866 2752 lineto
2496 2752 lineto
5258 14656 lineto
3328 14656 lineto
3967 17408 lineto
11430 17408 lineto
14561 17408 16176 16060 conicto
17792 14712 17792 12242 conicto
17792 9684 16018 8010 conicto
14245 6336 10270 6336 conicto
7729 6336 lineto
6898 2752 lineto
9024 2752 lineto
8410 0 lineto
256 0 lineto
8368 9088 moveto
9865 9088 lineto
11513 9088 12412 10055 conicto
13312 11023 13312 12511 conicto
13312 14656 10848 14656 conicto
9660 14656 lineto
8368 9088 lineto
end_ol grestore 
gsave 12.267227 -1409.550000 translate 0.035278 -0.035278 scale
start_ol
3712 0 moveto
4346 2752 lineto
6336 2752 lineto
9074 14656 lineto
6365 14656 lineto
5440 10624 lineto
2624 10624 lineto
4186 17408 lineto
19648 17408 lineto
18112 10624 lineto
15296 10624 lineto
16233 14656 lineto
13500 14656 lineto
10762 2752 lineto
12736 2752 lineto
12101 0 lineto
3712 0 lineto
end_ol grestore 
showpage
